Name	SiO2	TiO2	Al2O3	Fe2O3	MnO	MgO	CaO	Na2O	K2O	P2O5	S	SO3	Cl	LOI	Sc	V	Cr	Co	Ni	Cu	Zn	Ga	Ge	As	Se	Br	Rb	Sr	Y	Zr	Nb	Mo	Pd	Ag	Sn	Sb	Cs	Ba	La	Ce	Pr	Nd	Sm	Eu	Gd	Tb	Dy	Ho	Er	Tm	Yb	Lu	Hf	Ta	W	Re	Os	Ir	Pt	Au	Hg	Tl	Pb	Bi	Th	U
AGV-2	59.30	1.050	16.91	6.69	0.099	1.79	5.20	4.19	2.88	0.48					13	120	17	16	19	53	86	20					68.6	658	20	230	15				2.3	0.6	1.16	1140	38	68	8.3	30	5.7	1.54	4.69	0.64	3.6	0.71	1.79	0.26	1.6	0.25	5.08	0.89								0.27	13		6.1	1.88
BCR-2	54.10	2.260	13.50	13.80	0.196	3.59	7.12	3.16	1.79	0.35					33	416	18	37		19	127	23					48	346	37	188		248					1.1	683	25	53	6.8	28	6.7	2	6.8	1.07		1.33		0.54	3.5	0.51	4.8										11		6.2	1.69
BHVO-2	49.90	2.730	13.50	12.30	0.167	7.23	11.40	2.22	0.52	0.27					32	317	280	45	119	127	103	21.7					9.8	389	26	172	18				1.9			130	15	38		25	6.2		6.3	0.9		1.04			2	0.28	4.1	1.4											1.2	
GBW 07106	90.36	0.260	3.52	3.22	0.020	0.08	0.30	0.06	0.65	0.22	0.09		0.00	1.10	4.2	33	20	6.4	16.6	19	20	5.3	1.16	9.1	0.08		29	58	21.5	214	5.9	0.76		0.062	1.1	0.6	1.8	143	21	48	5.4	21	4.7	1.02	4.5	0.79	4.1	0.75	2	0.32	1.9	0.3	6.6	0.38	1.2					0.0018	0.008	0.36	7.6	0.18	7	2.1
GSD-12	77.29	0.250	9.30	4.88	0.181	0.47	1.16	0.44	2.91	0.05	0.09	0.24	0.02	2.62	5.1	46.6	35	8.8	12.8	1230	498	14.1	1.87	115	0.25	1.7	270	24.4	29.3	234	15.4	8.4		1.15	54	24.3	7.9	206	32.7	61	6.9	25.6	5	0.61	4.4	0.82	4.8	0.94	3.1	0.53	3.7	0.58	8.3	3.2	37.4					5.6	56	1.76	285	10.9	21.4	7.8
GSP-2	66.60	0.660	14.90	4.90	0.041	0.96	2.10	2.78	5.38	0.29					6.3	52	20	7.3	17	43	120	22					245	240	28	550	27	2.1					1.2	1340	180	410	51	200	27	2.3	12		6.1	1	2.2	0.29	1.6	0.23	14									1.1	42		105	2.4
GSR-4	90.36	0.260	3.52	3.22	0.020	0.08	0.30	0.06	0.65	0.22	0.09		0.00	1.10	4.2	33	20	6.4	16.6	19	20	5.3	1.16	9.1	0.098		29	58	21.5	214	5.9	0.76		0.062	1.1	0.6	1.8	143	21	48	5.4	21	4.7	1.02	4.5	0.79	4.1	0.75	2	0.32	1.92	0.3	6.6	0.42	1.16					0.0018	8.4	0.36	7.6	180	7	2.1
GUW AN	0.22	0.000	0.02	0.01	0.002	0.34	40.70	0.03	0.01		23.07	57.60	0.00			18	0.9			4	7.9	4.3					4.7	1400		13		1.2				0.044	0.037	14.8																0.007											0.048	
GUW AN	0.22	0.003	0.02	0.01	0.002	0.34	40.70	0.03	0.01			57.60		98.95		18	0.9			4	7.9	4.3					4.7	1400		13		1.2					0.037	14.8																0.007											0.048	
JCh-1	97.81	0.032	0.73	0.36	0.017	0.08	0.04	0.03	0.22	0.02				99.34	0.979	10.4	7.04	15.5	8.76	15.3	7.93			0.567			8.61	4.2	1.81	11.5	1.7						0.243	302	1.52	5.21	4.25	2.05	0.359	0.0594	1.7	0.0385	0.378	0.112	0.233		0.182	0.0344	0.195	0.182	92.3								2		0.735	0.736
JDo-1	0.22	0.001	0.02	0.02	0.007	18.47	33.96	0.01	0.00	0.03				52.74	0.136	3.14	7.93	0.168	2.9	1.41	35.4			0.114	0.0468	0.79	1.75	116	10.3	6.21	0.4	0.78					0.07	6.14	7.93	2.49	0.956	5.25	0.788	0.176	1.3	0.116	0.814	0.42		0.059	0.323	0.0494	0.0897	0.009									0.95		0.0429	0.858
JDo-1	0.22	0.000	0.02	0.02	0.007	18.47	33.96	0.01	0.00	0.03	0.01				0.136	3.14	7.93	0.168	2.9	1.41	35.4			0.114	0.0468	0.79	1.75	116	10.3	6.21	0.4	0.78	<0.2	0.0019		0.036	0.07	6.14	7.93	2.49	0.956	5.25	0.788	0.176	1.3	0.116	0.814	0.42		0.059	0.323	0.0494	0.0897	0.009					0.25	0.09	9.5	0.003	0.95		0.0429	0.858
JG-2	76.83	0.040	12.47	0.97	0.016	0.04	0.70	3.54	4.71	0.00	0.00				2.42	3.78	6.37	3.62	4.35	0.49	13.6	18.6	1.7	0.68			301	17.9	86.5	97.6	14.7	0.37	<0.2	0.019	3	0.057	6.79	81	19.9	48.3	6.2	26.4	7.78	0.1	8.01	1.62	10.5	1.67	6.04	1.16	6.85	1.22	4.73	2.76	23	0.016		0.004	0.25	0.059	3.3	1.55	31.5	0.64	31.6	11.3
JG-3	67.29	0.480	15.48	3.69	0.071	1.79	3.69	3.96	2.64	0.12	0.01		0.02		8.76	70.1	22.4	11.7	14.3	6.81	46.5	17.1	1.06	0.37			67.3	379	17.3	144	5.88	0.45	<0.2	0.029	1.4	0.08	1.78	466	20.6	40.3	4.7	17.2	3.39	0.9	2.92	0.46	2.59	0.38	1.52	0.24	1.77	0.26	4.29	0.7	14.1	0.033		0.0016	0.25	0.17	2.4	0.4	11.7	0.05	8.28	2.21
JLs-1	0.12	0.002	0.02	0.02	0.002	0.61	55.09	0.00	0.00	0.03				55.89	0.0307	3.59	3.37	0.0825	0.362	0.268	3.19			0.145			0.18	295	0.223	4.19	1						0.0201	476	0.153	0.521	0.032	0.136	0.135	0.0072	0.03	0.0041	0.0283				0.0164	0.022	0.126	0.014									0.7		0.0287	1.75
Nod-A-1	3.81	0.530	3.87	15.60	23.900	4.76	15.40	1.00	0.60	1.40						770		3110	6360	1100	590							1750	116			448						1670	120	730		94	21	5	26		23		12		14	2.2											846			
Nod-P-1	13.90	0.500	4.80	8.30	37.600	3.30	3.10	2.20	1.20	0.46						570		2240	13400	11500	1600							680	94			760						3350	104	290		120	30	7.5	28		27		12		13	1.8											560			
SCo-1	62.80	0.630	13.70	5.13	0.053	2.72	2.62	0.90	2.77	0.21	0.06		0.01		11	130	68	11	27	29	100	15	1	12	0.89	1.03	110	170	26	160	11	1.4	0.001	0.134	3.7	2.5	7.8	570	30	62	6.6	26	5.3	1.19	4.6	0.7	4.2	0.97	2.5	0.42	2.27	0.34	4.6	0.92	1.4					0.0021	0.052	0.72	31	0.37	9.7	3
SDC-1	65.80	1.010	15.80	6.32	0.114	1.69	1.40	2.05	3.28	0.16	0.07		0.00		17	102	64	18	38	30	103	21	1.5	0.22	0.032	0.097	127	180	40	290	21	0.25	0.0011	0.041	3	0.54	4	630	42	93	9.8	40	8.2	1.71	7	1.18	6.7	1.5	4.1	0.65	4	0.53	8.3	1.21	0.8				0.001	0.0012	0.023	0.7	25	0.26	12	3.1
SDO-1	49.28	0.710	12.27	9.34	0.042	1.54	1.05	0.38	3.35	0.11	5.35			21.70	13.2	160	66.4	46.8	99.5	60.2	64.1	16.8		68.5			126	75.1	40.6	165	11.4	134			2.9		6.9	397	38.5	79.3	8.9	36.6	7.7	1.6	7.4	1.2	6	1.2	3.6	0.45	3.4	0.54	4.7	1.1							0.19		27.9		10.5	48.8
SGR-1	28.20	0.250	6.52	3.03	0.034	4.44	8.38	2.99	1.66	0.33	1.53		0.00		4.6	130	30	12	29	66	74	12	1.6	67	3.5		83	420	13	53	5.2	35	0.0052		1.9	3.4	5.2	290	20	36	3.9	16	2.7	0.56	2	0.36	1.9	0.4	1.1	0.17	0.94	0.14	1.4	0.42	2.6				0.003	0.0089	0.3	0.33	38	0.94	4.8	5.4
NIST-1c	6.84	0.070	1.30	0.55	0.025	0.42	50.30	0.02	0.28	0.04				39.90														253.68																																						
NIST-1d	4.08	0.031	0.53	0.32	0.021	0.30	52.85	0.01	0.14	0.04		0.25		41.60		10	0.0012		4		0.0022	1					6	0.0303	5		0.7				1		0.4	0.0033	4	4	0.6	3	0.5	0.1	0.5	0.09	0.6	0.1	0.4		0.3														0.5	
NIST-88b	1.13	0.016	0.34	0.28	0.016	21.03	29.95	0.03	0.10	0.00				46.98	0.36512		2.32628	1.02245										64.2656									0.160344			3.82627				0.12954									0.13568												0.30758	
